{
  "users": [
    {
      "id": 0,
      "name": "Grigoriy Chudnov",
      "dateStart": "21/02/15",
      "dateEnd": null
    },
    {
      "id": 1,
      "name": "Vasya Pupkin",
      "dateStart": "22/03/15",
      "dateEnd": "30/12/17"
    },
    {
      "id": 2,
      "name": "Albatros Fits",
      "dateStart": "23/04/15",
      "dateEnd": "05/05/16"
    },
    {
      "id": 3,
      "name": "Yuhal Ordzhonikidze",
      "dateStart": "25/05/15",
      "dateEnd": null
    },
    {
      "id": 4,
      "name": "Ahuvi Israel",
      "dateStart": "05/09/14",
      "dateEnd": "25/05/15"
    },
    {
      "id": 5,
      "name": "Leha Driver",
      "dateStart": "17/10/16",
      "dateEnd": null
    },
    {
      "id": 6,
      "name": "Franklin Usaovich",
      "dateStart": "22/08/11",
      "dateEnd": "01/01/18"
    },
    {
      "id": 7,
      "name": "Petro Incognito",
      "dateStart": "13/07/17",
      "dateEnd": null
    },
    {
      "id": 8,
      "name": "Zhora Poc",
      "dateStart": "30/07/16",
      "dateEnd": "11/02/18"
    },
    {
      "id": 9,
      "name": "Vitos Barbos",
      "dateStart": "07/06/13",
      "dateEnd": null
    },
    {
      "id": 10,
      "name": "Andrew Krendel",
      "dateStart": "31/03/15",
      "dateEnd": "25/12/17"
    },
    {
      "id": 11,
      "name": "Yuliya Vertuhay",
      "dateStart": "21/02/14",
      "dateEnd": "12/12/17"
    }
  ]
}